Kabe;8;8;sund=True|oota=True|en_passant=False|vangerdus=False|t2ht_k2s=ei|kord=1|periood=0|t2htis=[K,k]|edutused={N:[T],E:[V,R,O,L],n:[t],e:[v,r,o,l]};
S;S;S;S;S;S;S;S;S;S
S;N;_;N;_;N;_;N;_;S
S;_;N;_;N;_;N;_;N;S
S;N;_;N;_;N;_;N;_;S
S;_;_;_;_;_;_;_;_;S
S;_;_;_;_;_;_;_;_;S
S;_;n;_;n;_;n;_;n;S
S;n;_;n;_;n;_;n;_;S
S;_;n;_;n;_;n;_;n;S
S;S;S;S;S;S;S;S;S;S
;lopp
