Male;8;8;sund=0|oota=True|en_passant=True|vangerdus=True|t2ht_k2s=ja|kord=1|periood=0|t2htis=[K,k]|edutused={N:[T],E:[V,R,O,L],n:[t],e:[v,r,o,l]};
S;S;S;S;S;S;S;S;S;S
S;V;R;O;L;K;O;R;V;S
S;E;E;E;E;E;E;E;E;S
S;_;_;_;_;_;_;_;_;S
S;_;_;_;_;_;_;_;_;S
S;_;_;_;_;_;_;_;_;S
S;_;_;_;_;_;_;_;_;S
S;e;e;e;e;e;e;e;e;S
S;v;r;o;l;k;o;r;v;S
S;S;S;S;S;S;S;S;S;S
;lopp
